category	name	gene	logFC	Cn	Tr	description
GO:0003735	structural constituent of ribosome	Solyc08g077720.2	1.27528763172223	3.97032639731451	7.20712967362235	60S ribosomal protein L37a (AHRD V1 ***- Q5GMM4_CAPCH)%3B contains Interpro domain(s)  IPR002674  Ribosomal protein L37ae 
GO:0003735	structural constituent of ribosome	Solyc11g068420.1	1.54873296992883	6.96773362038303	13.4578682234435	Ribosomal protein (AHRD V1 ***- Q6ER67_ORYSJ)%3B contains Interpro domain(s)  IPR002143  Ribosomal protein L1 
GO:0003735	structural constituent of ribosome	Solyc04g074910.2	2.68108052304135	2.82179944901774	11.1632507896869	40S ribosomal protein S21 (AHRD V1 ***- D7M5J1_ARALY)%3B contains Interpro domain(s)  IPR001931  Ribosomal protein S21e 
GO:0003735	structural constituent of ribosome	Solyc09g066430.2	1.37569105184437	4.82821594164271	9.02668379757141	60S ribosomal protein L14 (AHRD V1 ***- D7MEJ2_ARALY)%3B contains Interpro domain(s)  IPR002784  Ribosomal protein L14 
GO:0003735	structural constituent of ribosome	Solyc08g074240.2	0.935682459498954	12.1592358993724	18.2872283047279	40S ribosomal protein S6 (AHRD V1 ***- B6T1H0_MAIZE)%3B contains Interpro domain(s)  IPR014401  Ribosomal protein S6%2C eukaryotic 
GO:0003735	structural constituent of ribosome	Solyc01g009100.2	1.73707157072264	1.90863027353386	4.59096330491442	Ribosomal protein L30 (AHRD V1 ***- B3TLP4_ELAGV)%3B contains Interpro domain(s)  IPR000231  Ribosomal protein L30e 
GO:0003735	structural constituent of ribosome	Solyc06g053820.2	1.63203628325009	5.46207431941729	11.5435812996503	30S ribosomal protein S19 (AHRD V1 *-*- RS19_SHEAM)%3B contains Interpro domain(s)  IPR005713  Ribosomal protein S15%2C eukaryotic/archaeal 
GO:0003735	structural constituent of ribosome	Solyc06g073300.1	1.17869183307305	1.76422939963655	3.17718259876716	60S ribosomal protein L27 (AHRD V1 ***- A5C1Z2_VITVI)%3B contains Interpro domain(s)  IPR001141  Ribosomal protein L27e 
GO:0003735	structural constituent of ribosome	Solyc06g082670.2	1.13095859133375	96.297006682581	152.135412129911	Ribosomal protein L10 (AHRD V1 ***- A8IZK3_CHLRE)%3B contains Interpro domain(s)  IPR001197  Ribosomal protein L10e 
GO:0003735	structural constituent of ribosome	Solyc01g099830.2	2.78015027241414	3.73824746526746	15.2144828433862	60S ribosomal protein L22-2 (AHRD V1 ***- D7L3W0_ARALY)%3B contains Interpro domain(s)  IPR002671  Ribosomal protein L22e 
GO:0003735	structural constituent of ribosome	Solyc09g072870.2	0.960426032162269	27.7114961011765	41.036553415951	50S ribosomal protein L14 (AHRD V1 ***- RL14_DEHE1)%3B contains Interpro domain(s)  IPR000218  Ribosomal protein L14b/L23e 
GO:0003735	structural constituent of ribosome	Solyc06g082650.2	1.17145453445135	84.8459053338609	140.540638315953	60S ribosomal protein L10 (AHRD V1 ***- Q3SC85_SOLLC)%3B contains Interpro domain(s)  IPR001197  Ribosomal protein L10e 
GO:0003735	structural constituent of ribosome	Solyc08g007140.2	2.27689881723979	0.577840305652498	1.95423252123117	60S ribosomal protein L37a (AHRD V1 ***- Q5GMM4_CAPCH)%3B contains Interpro domain(s)  IPR002674  Ribosomal protein L37ae 
GO:0003735	structural constituent of ribosome	Solyc03g112850.2	1.36843875138309	2.33108058330027	4.55555285839598	60S ribosomal protein L44 (AHRD V1 ***- B9RH89_RICCO)%3B contains Interpro domain(s)  IPR000552  Ribosomal protein L44e 
GO:0003735	structural constituent of ribosome	Solyc01g008080.2	1.86950895517253	7.07137140548303	18.0586710592704	Ribosomal protein S27 (AHRD V1 ***- Q3HVK9_SOLTU)%3B contains Interpro domain(s)  IPR000592  Ribosomal protein S27e 
GO:0003735	structural constituent of ribosome	Solyc01g066840.2	1.57682666498264	5.82323516185789	11.3841989255324	40S ribosomal protein S21 (AHRD V1 ***- D7M5J1_ARALY)%3B contains Interpro domain(s)  IPR001931  Ribosomal protein S21e 
GO:0003743	translation initiation factor activity	Solyc03g115650.2	0.932166406887287	21.5252528138797	33.7226660900577	Eukaryotic translation initiation factor 5A (AHRD V1 **** D6N3G5_GOSHI)%3B contains Interpro domain(s)  IPR001884  Translation elongation factor%2C IF5A 
GO:0003743	translation initiation factor activity	Solyc08g022210.2	-1.34220520967577	7.23256073948538	2.36797629942147	Methylthioribose-1-phosphate isomerase (AHRD V1 ***- B6TZD1_MAIZE)%3B contains Interpro domain(s)  IPR005251  Putative translation initiation factor%2C aIF-2BI/5-methylthioribose-1-phosphate isomerase 
GO:0003743	translation initiation factor activity	Solyc07g064150.2	1.42994241908753	147.266540562651	287.638274239602	Translation initiation factor SUI1 (AHRD V1 **** A4QR10_MAGGR)%3B contains Interpro domain(s)  IPR005874  Eukaryotic translation initiation factor SUI1 
GO:0003743	translation initiation factor activity	Solyc06g076150.2	-1.11143207456008	7.58530734984142	2.93292194413906	Eukaryotic translation initiation factor 3 subunit 8-like protein (AHRD V1 **** Q9LIL2_ARATH)%3B contains Interpro domain(s)  IPR008905  Eukaryotic translation initiation factor 3 subunit 8%2C N-terminal 
GO:0003743	translation initiation factor activity	Solyc01g086750.2	-1.66831902173322	1.65536088287747	0.417180887879464	Protein TIF31 homolog (AHRD V1 ***- TIF31_COCIM)%3B contains Interpro domain(s)  IPR011990  Tetratricopeptide-like helical 
GO:0003743	translation initiation factor activity	Solyc01g088370.2	-1.42486594476179	1.98838984728776	0.635638937791381	Eukaryotic translation initiation factor 3 subunit B (AHRD V1 **** B2VZ72_PYRTR)%3B contains Interpro domain(s)  IPR011400  Translation initiation factor eIF-3b 
GO:0003743	translation initiation factor activity	Solyc07g056020.2	-1.3701570449067	2.5515801344312	0.83953895302822	Translation initiation factor IF-2 (AHRD V1 **** A5B2X2_VITVI)%3B contains Interpro domain(s)  IPR000178  Initiation factor 2 
GO:0003743	translation initiation factor activity	Solyc01g011000.2	1.17162760145046	8.80669546534883	15.6101636854485	Eukaryotic translation initiation factor 5A (AHRD V1 **** D6N3G5_GOSHI)%3B contains Interpro domain(s)  IPR001884  Translation elongation factor%2C IF5A 
GO:0005509	calcium ion binding	Solyc01g010020.2	2.0546119869037	6.49012344715031	17.3931411715	Calmodulin (AHRD V1 ***- B6SJJ2_MAIZE)%3B contains Interpro domain(s)  IPR003299  Flagellar calcium-binding protein (calflagin) 
GO:0005509	calcium ion binding	Solyc02g091480.1	2.30898443724974	790.72066287257	2278.82976021478	Calmodulin 4 (AHRD V1 ***- Q6WEH7_MOUSE)%3B contains Interpro domain(s)  IPR011992  EF-Hand type 
GO:0005509	calcium ion binding	Solyc10g079420.1	2.29357797649447	6.26310190332826	18.4599985254092	Calmodulin (AHRD V1 ***- B6TKX0_MAIZE)%3B contains Interpro domain(s)  IPR011992  EF-Hand type 
GO:0005509	calcium ion binding	Solyc10g081170.1	1.96323049445181	1.36463439346863	3.94810778800776	Calmodulin-2 (AHRD V1 ***- D7LFI7_ARALY)%3B contains Interpro domain(s)  IPR011992  EF-Hand type 
GO:0005509	calcium ion binding	Solyc10g044700.1	2.98903854126136	0.7686173239779	3.65206897302553	EF hand family protein expressed (AHRD V1 ***- Q852G4_ORYSJ)%3B contains Interpro domain(s)  IPR018248  EF hand 
GO:0005509	calcium ion binding	Solyc02g063350.1	2.38830701910781	0.853594751686375	3.11954239308818	Calmodulin (AHRD V1 ***- A8IDP6_CHLRE)%3B contains Interpro domain(s)  IPR011992  EF-Hand type 
GO:0005509	calcium ion binding	Solyc10g077010.1	1.21114528651517	1366.1314510674	2316.79519372771	Calmodulin 2 (AHRD V1 ***- Q710C9_BRAOL)%3B contains Interpro domain(s)  IPR011992  EF-Hand type 
GO:0005509	calcium ion binding	Solyc11g065660.1	-1.37645382130755	25.1996263612881	8.59891785081435	Calcium-dependent protein kinase 8 (AHRD V1 ***- Q6KC54_NICPL)%3B contains Interpro domain(s)  IPR002290  Serine/threonine protein kinase 
GO:0005509	calcium ion binding	Solyc04g007960.2	1.74963613460353	0.461064604790354	1.24657042962353	Calcium binding protein Caleosin (AHRD V1 **-* A8N0P5_COPC7)%3B contains Interpro domain(s)  IPR007736  Caleosin related 
GO:0005509	calcium ion binding	Solyc04g008000.2	1.75875314026669	22.3488418285	47.2576726460287	Calmodulin (AHRD V1 ***- D9J0A7_9ROSI)%3B contains Interpro domain(s)  IPR003299  Flagellar calcium-binding protein (calflagin) 
GO:0005509	calcium ion binding	Solyc06g068960.1	1.94366236583208	49.6298958812933	126.024152199199	Calmodulin (AHRD V1 ***- D3PJ43_9MAXI)%3B contains Interpro domain(s)  IPR011992  EF-Hand type 
GO:0005509	calcium ion binding	Solyc04g079080.2	2.28788313582095	0.588232014162631	1.81131915929497	Calmodulin (AHRD V1 *-*- Q178H5_AEDAE)%3B contains Interpro domain(s)  IPR011992  EF-Hand type 
GO:0005509	calcium ion binding	Solyc12g099990.1	2.40990739689348	9.74511704988195	30.529768115316	Calmodulin 2 (AHRD V1 ***- Q710C9_BRAOL)%3B contains Interpro domain(s)  IPR011992  EF-Hand type 
GO:0005509	calcium ion binding	Solyc02g067220.2	2.14556732656005	782.064033228375	2046.13198348393	Calmodulin-like protein (AHRD V1 *-*- B6TXW9_MAIZE)%3B contains Interpro domain(s)  IPR011992  EF-Hand type 
GO:0005509	calcium ion binding	Solyc02g063340.1	3.20860168901807	14.0652020209401	72.8695720932023	Calmodulin 4 (AHRD V1 **-- Q6WEH7_MOUSE)%3B contains Interpro domain(s)  IPR011992  EF-Hand type 
GO:0005509	calcium ion binding	Solyc01g058720.2	1.56656648044776	155.013623577575	308.321897581994	NaCl-inducible Ca2+-binding protein (AHRD V1 **-* O22368_ARATH)%3B contains Interpro domain(s)  IPR011992  EF-Hand type 
GO:0005509	calcium ion binding	Solyc11g072800.1	-1.40706067046525	28.2094848666479	9.35672767913931	NADPH oxidase (AHRD V1 ***- Q8W4X7_TOBAC)%3B contains Interpro domain(s)  IPR013121  Ferric reductase%2C NAD binding 
GO:0005509	calcium ion binding	Solyc10g005750.2	0.982035459377203	6.74322377079492	10.6957353522485	Calcium-dependent protein kinase (AHRD V1 **-* B2KTA9_WHEAT)%3B contains Interpro domain(s)  IPR011992  EF-Hand type 
GO:0005509	calcium ion binding	Solyc09g055880.1	2.31438030412023	3.77824252156819	11.3045564472631	Calmodulin-like protein (AHRD V1 ***- Q6RZU7_MUSAC)%3B contains Interpro domain(s)  IPR011992  EF-Hand type 
GO:0005509	calcium ion binding	Solyc03g083520.2	1.01153493779849	21.5227624117325	33.7018718774848	Calmodulin (AHRD V1 ***- B6T4U8_MAIZE)%3B contains Interpro domain(s)  IPR011992  EF-Hand type 
GO:0005509	calcium ion binding	Solyc04g018110.1	1.56062814545222	0.563300754807769	1.34813499218263	Calmodulin-like protein 1 (AHRD V1 *-*- B4FRR5_MAIZE)%3B contains Interpro domain(s)  IPR011992  EF-Hand type 
GO:0005509	calcium ion binding	Solyc12g099790.1	-1.02065130960528	985.717897593101	424.978281799744	Calcium-dependent protein kinase 17 (AHRD V1 ***- Q6KC53_NICPL)%3B contains Interpro domain(s)  IPR002290  Serine/threonine protein kinase 
GO:0005509	calcium ion binding	Solyc11g044920.1	1.70969873860452	480.386077347162	967.094105385199	Calmodulin-like protein (AHRD V1 ***- Q6RZU7_MUSAC)%3B contains Interpro domain(s)  IPR011992  EF-Hand type 
GO:0005509	calcium ion binding	Solyc03g118040.2	-1.4975185437819	10.051234426866	3.02343677678744	Calcium-binding protein Calnexin (AHRD V1 **-* Q9BLH3_HALRO)%3B contains Interpro domain(s)  IPR018124  Calreticulin/calnexin%2C conserved site  IPR001580  Calreticulin/calnexin 
GO:0005509	calcium ion binding	Solyc11g072270.1	2.32406310829756	7.18771034054723	20.4954459950635	Calmodulin (AHRD V1 ***- B6T4U8_MAIZE)%3B contains Interpro domain(s)  IPR011992  EF-Hand type 
GO:0005515	protein binding	Solyc09g065370.1	1.49757603353237	1.5164341109824	3.19259546500757	Unknown Protein (AHRD V1)
GO:0005515	protein binding	Solyc04g082420.2	-1.81934060105903	4.52780084859061	1.07205085026754	BTB/POZ domain-containing protein (AHRD V1 **-- D7LC69_ARALY)%3B contains Interpro domain(s)  IPR013089  Kelch related 
GO:0005515	protein binding	Solyc03g033370.2	2.57324314006338	0.66978164535064	2.55518753517843	PreY mitochondrial (AHRD V1 ***- B5XAT2_SALSA)%3B contains Interpro domain(s)  IPR005651  Protein of unknown function DUF343 
GO:0005515	protein binding	Solyc01g099780.2	2.20606456453147	67.692297140568	192.118458826736	Translationally-controlled tumor protein homolog (AHRD V1 ***- B5XDL0_SALSA)%3B contains Interpro domain(s)  IPR001983  Translationally controlled tumour-associated TCTP 
GO:0005515	protein binding	Solyc01g086970.2	1.49694810451069	19.6628544789696	39.0127293078473	Zinc finger A20 and AN1 domain-containing stress-associated protein 6 (AHRD V1 ***- C1C2A2_9MAXI)%3B contains Interpro domain(s)  IPR000058  Zinc finger%2C AN1-type 
GO:0005515	protein binding	Solyc05g052690.2	1.24830517816034	4.4376972568963	8.51604557403944	Eukaryotic translation initiation factor 3 subunit 5 (AHRD V1 ***- B4FRD9_MAIZE)%3B contains Interpro domain(s)  IPR000555  Mov34/MPN/PAD-1 
GO:0005515	protein binding	Solyc08g077720.2	1.27528763172223	3.97032639731451	7.20712967362235	60S ribosomal protein L37a (AHRD V1 ***- Q5GMM4_CAPCH)%3B contains Interpro domain(s)  IPR002674  Ribosomal protein L37ae 
GO:0005515	protein binding	Solyc01g107880.2	-1.1310993488897	107.265879665246	40.6728571535416	Membrane-associated ring finger 6 (AHRD V1 *--- B3VKM1_PIG)%3B contains Interpro domain(s)  IPR011016  Zinc finger%2C RING-CH-type 
GO:0005515	protein binding	Solyc04g076890.2	1.53600811235344	8.91120510948619	17.2159106570055	Ubiquitin-fold modifier-conjugating enzyme 1 (AHRD V1 ***- UFC1_ARATH)%3B contains Interpro domain(s)  IPR014806  Ubiquitin-fold modifier-conjugating enzyme 1 
GO:0005515	protein binding	Solyc07g065060.1	1.53865520728362	1.82509357887249	3.93618207465846	Wax synthase isoform 3 (AHRD V1 ***- Q84XY7_VITVI)
GO:0005515	protein binding	Solyc06g008110.2	-1.22603518416459	4.24006355211751	1.46211558537299	WD repeat-containing protein (AHRD V1 **-- C9SVG1_VERA1)%3B contains Interpro domain(s)  IPR017986  WD40 repeat%2C region 
GO:0005515	protein binding	Solyc08g007140.2	2.27689881723979	0.577840305652498	1.95423252123117	60S ribosomal protein L37a (AHRD V1 ***- Q5GMM4_CAPCH)%3B contains Interpro domain(s)  IPR002674  Ribosomal protein L37ae 
GO:0005515	protein binding	Solyc01g099370.2	1.53544698066828	20.0847784629048	40.6492950455182	SRC2 homolog (Fragment) (AHRD V1 ***- B3IYJ9_9SOLA)%3B contains Interpro domain(s)  IPR018029  C2 membrane targeting protein 
GO:0005515	protein binding	Solyc02g071150.2	0.910695518446023	17.0697409978139	25.023774999509	DNA-binding protein (AHRD V1 **** B7R4T4_9EURY)%3B contains Interpro domain(s)  IPR002836  DNA-binding TFAR19-related protein 
GO:0005515	protein binding	Solyc01g100840.2	1.24754872713312	2.07810055671839	3.81160871070641	Trafficking protein particle complex subunit 4 (AHRD V1 ***- B6U8Z1_MAIZE)%3B contains Interpro domain(s)  IPR007233  Sybindin-like protein 
GO:0005515	protein binding	Solyc02g014870.2	1.15065268194335	5.20515117151482	8.73760309141394	Mitosis protein dim1 (AHRD V1 **-- B6T4C6_MAIZE)%3B contains Interpro domain(s)  IPR004123  mRNA splicing factor%2C thioredoxin-like U5 snRNP 
GO:0005515	protein binding	Solyc06g066610.2	-1.49423895929954	38.0724401635065	11.900853961087	TATA element modulatory factor 1 (AHRD V1 *--- Q6DEI1_DANRE)
GO:0005515	protein binding	Solyc08g074240.2	0.935682459498954	12.1592358993724	18.2872283047279	40S ribosomal protein S6 (AHRD V1 ***- B6T1H0_MAIZE)%3B contains Interpro domain(s)  IPR014401  Ribosomal protein S6%2C eukaryotic 
GO:0005515	protein binding	Solyc01g009300.2	-1.27268047630086	31.7461940017484	11.2888866290828	Serine/threonine kinase (AHRD V1 *-** C4QNN2_SCHMA)%3B contains Interpro domain(s)  IPR002290  Serine/threonine protein kinase 
GO:0005515	protein binding	Solyc06g062820.2	-1.2824086663865	396.162177437784	142.128834960391	Receptor-like protein kinase (AHRD V1 *-** Q9FZP2_ARATH)%3B contains Interpro domain(s)  IPR002290  Serine/threonine protein kinase 
GO:0005515	protein binding	Solyc05g023740.2	-1.0107259082302	2275.62898539263	983.472988610317	MEI2-like RNA binding protein (AHRD V1 **-* Q64M78_ORYSJ)%3B contains Interpro domain(s)  IPR007201  RNA recognition motif 2 
GO:0005515	protein binding	Solyc06g053820.2	1.63203628325009	5.46207431941729	11.5435812996503	30S ribosomal protein S19 (AHRD V1 *-*- RS19_SHEAM)%3B contains Interpro domain(s)  IPR005713  Ribosomal protein S15%2C eukaryotic/archaeal 
GO:0005515	protein binding	Solyc03g097970.2	1.41408302927176	2.3751354329057	4.75564284487104	Erwinia induced protein 2 (AHRD V1 ***- B4FAP8_MAIZE)
GO:0005515	protein binding	Solyc01g091590.2	1.89031305064858	0.628363081231181	1.88230833227715	SRC2 protein (AHRD V1 ***- A7XAJ8_9CONI)%3B contains Interpro domain(s)  IPR000008  C2 calcium-dependent membrane targeting 
GO:0005515	protein binding	Solyc10g005850.2	-1.09267997715019	24.8754114445892	10.0210612132468	Genomic DNA chromosome 3 P1 clone MJH23 (AHRD V1 *-*- Q9LHL0_ARATH)%3B contains Interpro domain(s)  IPR001202  WW/Rsp5/WWP 
GO:0005515	protein binding	Solyc09g072870.2	0.960426032162269	27.7114961011765	41.036553415951	50S ribosomal protein L14 (AHRD V1 ***- RL14_DEHE1)%3B contains Interpro domain(s)  IPR000218  Ribosomal protein L14b/L23e 
GO:0005515	protein binding	Solyc01g111650.2	1.30032262389203	8.05880216995999	14.5355213270002	Skp1 (AHRD V1 ***- Q49HP3_CAPAN)%3B contains Interpro domain(s)  IPR016897  E3 ubiquitin ligase%2C SCF complex%2C Skp subunit 
GO:0005515	protein binding	Solyc04g049400.2	-1.10005667317151	262.338325642957	103.058275763534	Receptor-like protein kinase (AHRD V1 ***- Q9FZP2_ARATH)%3B contains Interpro domain(s)  IPR002290  Serine/threonine protein kinase 
GO:0005515	protein binding	Solyc02g082840.2	-1.4385279181199	194.326313292699	62.8138008725649	Protein GRIP (AHRD V1 ***- GRIP_ARATH)%3B contains Interpro domain(s)  IPR000237  GRIP 
GO:0005515	protein binding	Solyc04g078920.2	1.12564228102818	1.49273355609869	2.59952251785907	Peroxisomal multifunctional enzyme type 2 (AHRD V1 **-- B6TQ98_MAIZE)%3B contains Interpro domain(s)  IPR016083  Sterol-binding-like 
GO:0005515	protein binding	Solyc06g009530.2	-1.19129499310177	4.8190119260864	1.71853945413317	Nodal modulator 3 (AHRD V1 ***- B0XK54_CULQU)%3B contains Interpro domain(s)  IPR013784  Carbohydrate-binding-like fold 
GO:0005515	protein binding	Solyc06g082650.2	1.17145453445135	84.8459053338609	140.540638315953	60S ribosomal protein L10 (AHRD V1 ***- Q3SC85_SOLLC)%3B contains Interpro domain(s)  IPR001197  Ribosomal protein L10e 
GO:0005515	protein binding	Solyc06g082670.2	1.13095859133375	96.297006682581	152.135412129911	Ribosomal protein L10 (AHRD V1 ***- A8IZK3_CHLRE)%3B contains Interpro domain(s)  IPR001197  Ribosomal protein L10e 
GO:0005515	protein binding	Solyc01g090420.2	-1.14532421344649	6.69044507458174	2.48260120020653	Armadillo/beta-catenin repeat family protein (AHRD V1 **-- D7LBT5_ARALY)%3B contains Interpro domain(s)  IPR011989  Armadillo-like helical 
GO:0005515	protein binding	Solyc03g034080.2	-1.18279553478607	5.15914897287488	1.85855269781474	Acidic leucine-rich nuclear phosphoprotein 32 family member A (AHRD V1 *-*- B6UH95_MAIZE)%3B contains Interpro domain(s)  IPR001611  Leucine-rich repeat 
GO:0005515	protein binding	Solyc02g076660.2	-1.38452808377728	199.757685927444	67.7727726382086	Receptor like kinase%2C RLK
GO:0005515	protein binding	Solyc04g050970.2	-1.22485354997384	287.038427872521	108.648830372479	Receptor protein kinase-like protein (AHRD V1 **** Q9LRY1_ARATH)%3B contains Interpro domain(s)  IPR002290  Serine/threonine protein kinase 
GO:0005515	protein binding	Solyc01g107630.2	1.51354889422232	0.776662367632354	1.79673419061035	Cell division cycle protein 123-like protein (AHRD V1 ***- B6S349_9BILA)%3B contains Interpro domain(s)  IPR009772  D123 
GO:0005515	protein binding	Solyc06g034330.2	-1.06233137988592	42.0082426475714	16.7900501125519	E3 ubiquitin ligase (AHRD V1 *--* Q2URX1_ASPOR)%3B contains Interpro domain(s)  IPR018957  Zinc finger%2C C3HC4 RING-type 
GO:0005515	protein binding	Solyc08g061320.2	-1.76854225748432	1.23537133747992	0.31028480918964	Smr domain containing protein (AHRD V1 ***- B6SWQ7_MAIZE)%3B contains Interpro domain(s)  IPR002625  Smr protein/MutS2 C-terminal 
GO:0005515	protein binding	Solyc09g083320.1	1.98127708998174	15.1600177255025	35.3578055184554	Prenylated rab acceptor PRA1 (AHRD V1 ***- A2Q469_MEDTR)%3B contains Interpro domain(s)  IPR004895  Prenylated rab acceptor PRA1 
GO:0005515	protein binding	Solyc07g051840.2	-1.5403033865097	1.93307526593408	0.481319171898808	WRKY transcription factor (AHRD V1 ***- D0PSE9_9LAMI)%3B contains Interpro domain(s)  IPR003657  DNA-binding WRKY 
GO:0005515	protein binding	Solyc10g008870.2	1.76496061794825	30.0476338741347	64.8054545730179	Transcription elongation factor 1 homolog (AHRD V1 **** C1C367_9MAXI)%3B contains Interpro domain(s)  IPR007808  Protein of unknown function DUF701%2C zinc-binding putative 
GO:0005515	protein binding	Solyc03g119750.2	-1.31156552219964	145.364277148399	50.8710064706453	Family with sequence similarity 116 member B (Fragment) (AHRD V1 *--- A6X8I4_HUMAN)%3B contains Interpro domain(s)  IPR012860  Protein of unknown function DUF1630 
GO:0005515	protein binding	Solyc01g106600.2	0.928857780332286	2511.27709861254	3695.3009652731	Pathogenesis-related protein 1 (AHRD V1 **-- D2XZ57_9ROSI)%3B contains Interpro domain(s)  IPR001283  Allergen V5/Tpx-1 related 
GO:0005515	protein binding	Solyc09g066000.1	1.98674209241331	4.48370308423051	10.8604079401074	Prenylated rab acceptor PRA1 (AHRD V1 ***- A2Q469_MEDTR)%3B contains Interpro domain(s)  IPR004895  Prenylated rab acceptor PRA1 
GO:0005515	protein binding	Solyc09g009460.2	1.85440225275929	11.6401871170587	27.3758825848288	Iron-sulfur cluster insertion protein erpA 2 (AHRD V1 *-*- ERPA2_METCA)%3B contains Interpro domain(s)  IPR000361  FeS cluster biogenesis 
GO:0005515	protein binding	Solyc02g062040.2	0.850550333429992	25.4563844845309	37.3228684517711	RING finger-like (AHRD V1 *-*- Q5Z6V1_ORYSJ)%3B contains Interpro domain(s)  IPR018957  Zinc finger%2C C3HC4 RING-type 
GO:0005515	protein binding	Solyc08g074750.2	1.22846362180638	22.4462465069714	39.1364740737163	Zinc finger protein 706 (AHRD V1 -**- C3KIH7_ANOFI)%3B contains Interpro domain(s)  IPR015023  Protein of unknown function DUF1909 
GO:0005515	protein binding	Solyc05g026310.2	1.10803183496754	13.9395270106903	22.3425686739307	Derlin-3 (AHRD V1 ***- B6U3C7_MAIZE)%3B contains Interpro domain(s)  IPR007599  Der1-like 
GO:0005515	protein binding	Solyc12g035130.1	-1.09869021013186	28.4102996981254	11.594818338126	ATP dependent RNA helicase (AHRD V1 ***- B3LNW9_YEAS1)%3B contains Interpro domain(s)  IPR011545  DNA/RNA helicase%2C DEAD/DEAH box type%2C N-terminal 
GO:0005515	protein binding	Solyc06g005390.1	2.85906969002149	18.8241134105773	77.2573255752003	Histone H2B (AHRD V1 ***- D7LK79_ARALY)%3B contains Interpro domain(s)  IPR000558  Histone H2B 
GO:0005515	protein binding	Solyc01g099770.2	2.48579555430091	427.436044036451	1369.99563471581	Translationally-controlled tumor protein homolog (AHRD V1 ***- B5XDL0_SALSA)%3B contains Interpro domain(s)  IPR001983  Translationally controlled tumour-associated TCTP 
GO:0005515	protein binding	Solyc07g049710.2	1.65491861425049	46.6192955128466	94.0749240542742	V-type proton ATPase subunit e (AHRD V1 **** VA0E_CAEEL)%3B contains Interpro domain(s)  IPR008389  ATPase%2C V0 complex%2C subunit E 
GO:0005515	protein binding	Solyc01g095210.2	-1.26505396452952	10.6348777952626	3.73457458038984	Golgin candidate 4 (AHRD V1 **-- GOGC4_ARATH)
GO:0005515	protein binding	Solyc08g082760.2	2.42575261737737	5.7108910820493	17.4005273014158	Brain protein 44-like protein (AHRD V1 ***- B6SX80_MAIZE)%3B contains Interpro domain(s)  IPR005336  Uncharacterised protein family UPF0041 
GO:0005515	protein binding	Solyc01g110390.2	1.25282024149393	10.4209265398977	19.0764269699662	NADH dehydrogenase  (AHRD V1 **** NDUB9_MOUSE)%3B contains Interpro domain(s)  IPR008011  Complex 1 LYR protein 
GO:0005515	protein binding	Solyc06g076150.2	-1.11143207456008	7.58530734984142	2.93292194413906	Eukaryotic translation initiation factor 3 subunit 8-like protein (AHRD V1 **** Q9LIL2_ARATH)%3B contains Interpro domain(s)  IPR008905  Eukaryotic translation initiation factor 3 subunit 8%2C N-terminal 
GO:0005515	protein binding	Solyc06g066400.2	1.5113089368694	8.97008103373858	17.1221953303829	Dolichol phosphate-mannose biosynthesis regulatory protein (AHRD V1 **** C3KJ11_ANOFI)%3B contains Interpro domain(s)  IPR009914  Dolichol phosphate-mannose biosynthesis regulatory 
GO:0005515	protein binding	Solyc02g021590.2	-1.01096885828381	246.282083715614	103.710732743807	LRR receptor-like serine/threonine-protein kinase%2C RLP
GO:0005515	protein binding	Solyc08g066020.1	-1.18908947472558	4.19323094946742	1.50421152062587	Serine C-palmitoyltransferase like protein (AHRD V1 **-* Q94IB8_ARATH)%3B contains Interpro domain(s)  IPR004839  Aminotransferase%2C class I and II 
GO:0005515	protein binding	Solyc09g009590.1	1.67776970610666	9.41051868377838	19.7746728718018	Zinc finger A20 and AN1 domain-containing stress-associated protein 4 (AHRD V1 ***- SAP4_ARATH)%3B contains Interpro domain(s)  IPR002653  Zinc finger%2C A20-type  IPR000058  Zinc finger%2C AN1-type 
GO:0005515	protein binding	Solyc07g053180.2	-1.15196799653874	29.9306714734339	11.5890123548366	Lrr%2C  resistance protein fragment
GO:0005515	protein binding	Solyc06g083360.2	2.3815837565472	3.48480679574257	10.1981307217634	DNA-directed RNA Polymerase II subunit L (AHRD V1 ***- A3GGI8_PICST)%3B contains Interpro domain(s)  IPR000268  RNA polymerases%2C N/8 kDa subunit 
GO:0005515	protein binding	Solyc07g064150.2	1.42994241908753	147.266540562651	287.638274239602	Translation initiation factor SUI1 (AHRD V1 **** A4QR10_MAGGR)%3B contains Interpro domain(s)  IPR005874  Eukaryotic translation initiation factor SUI1 
GO:0005515	protein binding	Solyc03g123530.2	-2.17460157006648	0.895843286166814	0.131009146252314	CCAAT-box-binding transcription factor-like protein (AHRD V1 **** Q6YU01_ORYSJ)%3B contains Interpro domain(s)  IPR005612  CCAAT-binding factor 
GO:0005515	protein binding	Solyc03g044380.2	-0.972695163701556	42.7825354948239	18.7604694133396	Histone-lysine N-methyltransferase MEDEA (AHRD V1 *--- MEDEA_ARATH)%3B contains Interpro domain(s)  IPR001214  SET 
GO:0005515	protein binding	Solyc02g068480.2	-1.32464838827363	3.20904381518324	1.060768038479	Ubiquitin carboxyl-terminal hydrolase family protein (AHRD V1 ***- D7ME50_ARALY)%3B contains Interpro domain(s)  IPR001394  Peptidase C19%2C ubiquitin carboxyl-terminal hydrolase 2 
GO:0005515	protein binding	Solyc05g051030.2	1.40462555715186	164.122088028799	301.062171316509	ER-derived vesicles protein ERV14 (AHRD V1 **-- B6T6Y8_MAIZE)%3B contains Interpro domain(s)  IPR003377  Cornichon 
GO:0005515	protein binding	Solyc05g005020.2	-1.08424888397226	6.78646912436967	2.67664175623843	R1 protein alpha-glucan water dikinase (AHRD V1 **** A8I6T5_CHLRE)%3B contains Interpro domain(s)  IPR002192  Pyruvate phosphate dikinase%2C PEP/pyruvate-binding 
GO:0005515	protein binding	Solyc01g109530.2	-1.28402448489134	1349.90491671176	476.238943727193	Receptor like kinase%2C RLK
GO:0005515	protein binding	Solyc01g079350.2	-1.02128114658879	41.3666374102921	17.4706470026442	PAPA-1-like conserved region family protein expressed (AHRD V1 *-*- Q2QNL7_ORYSJ)%3B contains Interpro domain(s)  IPR006880  PAPA-1-like conserved region 
GO:0005515	protein binding	Solyc06g069520.2	2.07822137794523	10.6745283495222	28.566716510173	UPF0139 membrane protein At5g07960 (AHRD V1 ***- U139_ARATH)%3B contains Interpro domain(s)  IPR005351  Uncharacterised protein family UPF0139 
GO:0005515	protein binding	Solyc10g083310.1	-1.72303567305145	8.850178306347	2.24317805420858	Kinesin-5 (AHRD V1 *-*- D2V727_NAEGR)%3B contains Interpro domain(s)  IPR001752  Kinesin%2C motor region 
GO:0005515	protein binding	Solyc08g066200.2	-1.13568484688014	30.508459459648	11.7819289313357	Poly(A) polymerase (AHRD V1 ***- D7M9N5_ARALY)%3B contains Interpro domain(s)  IPR007012  Poly(A) polymerase%2C central region 
GO:0005515	protein binding	Solyc03g082570.2	1.95593909658577	0.989964962072736	2.59471089482726	Ubiquitin (AHRD V1 ***- C0SFI2_PARBP)%3B contains Interpro domain(s)  IPR019956  Ubiquitin subgroup 
GO:0005515	protein binding	Solyc01g096490.2	-1.57089270419861	3.06530928536781	0.866122995225705	Kinase family protein (AHRD V1 *--- D7MA69_ARALY)%3B contains Interpro domain(s)  IPR002110  Ankyrin 
GO:0005515	protein binding	Solyc10g051120.1	2.69151432024986	0.535726854162974	2.06451126011669	Brain protein 44-like protein (AHRD V1 ***- B6TQE5_MAIZE)%3B contains Interpro domain(s)  IPR005336  Uncharacterised protein family UPF0041 
GO:0005515	protein binding	Solyc11g005910.1	-1.61074713863465	5.14748538188272	1.36243960912572	Phosphatidylinositol kinase (AHRD V1 **** B9V0T3_ORYRU)%3B contains Interpro domain(s)  IPR015433  Phosphatidylinositol Kinase 
GO:0005515	protein binding	Solyc02g077440.2	2.12650511276968	10.3269111181713	27.4827078437763	Transcription elongation factor 1 homolog (AHRD V1 **** C1C367_9MAXI)%3B contains Interpro domain(s)  IPR007808  Protein of unknown function DUF701%2C zinc-binding putative 
GO:0005515	protein binding	Solyc04g049360.2	-1.66027031723462	7.77599043757757	2.17380847997	4-amino-4-deoxychorismate synthase component I (AHRD V1 **** D9W9C0_STRHY)%3B contains Interpro domain(s)  IPR005802  Para-aminobenzoate synthase%2C component I 
GO:0005515	protein binding	Solyc05g015070.2	-1.10189843167979	238.420209836598	94.153997261996	U-box domain-containing protein (AHRD V1 ***- D7KBV1_ARALY)%3B contains Interpro domain(s)  IPR011989  Armadillo-like helical 
GO:0005515	protein binding	Solyc04g072130.1	-1.9167860137633	2.20074769469745	0.445761317016938	Programmed cell death 4a (AHRD V1 *--- D3TLD2_GLOMM)%3B contains Interpro domain(s)  IPR003891  Initiation factor eIF-4 gamma%2C MA3 
GO:0005515	protein binding	Solyc07g062530.2	-1.30052335953133	2.58037174959352	0.849492906743133	Phosphoenolpyruvate carboxylase 2 (AHRD V1 ***- Q9SCB2_SOLLC)%3B contains Interpro domain(s)  IPR015813  Pyruvate/Phosphoenolpyruvate kinase%2C catalytic core  IPR001449  Phosphoenolpyruvate carboxylase 
GO:0005515	protein binding	Solyc01g098780.2	1.2309844749777	1.46937371522977	2.8555190743053	Signal peptidase complex subunit 3 (AHRD V1 **** B0XD98_CULQU)%3B contains Interpro domain(s)  IPR007653  Signal peptidase 22 kDa subunit 
GO:0005515	protein binding	Solyc06g076460.2	1.09744987181498	9.10052083952605	14.920760949854	Transcription elongation factor B polypeptide 1 (AHRD V1 ***- Q1HQ04_BOMMO)%3B contains Interpro domain(s)  IPR011333  BTB/POZ fold 
GO:0005515	protein binding	Solyc03g118260.1	-1.12993991181038	12.0490558250147	4.63950719419848	Arf-GAP with GTPase%2C ANK repeat and PH domain-containing protein 3 (AHRD V1 *--- AGAP3_MOUSE)%3B contains Interpro domain(s)  IPR001164  Arf GTPase activating protein 
GO:0005515	protein binding	Solyc01g080520.2	-1.05259522779177	1448.57039363874	610.905713310894	Serine/threonine protein kinase-like (AHRD V1 *-** Q9FGC3_ARATH)%3B contains Interpro domain(s)  IPR002290  Serine/threonine protein kinase 
GO:0005515	protein binding	Solyc12g099260.1	-2.11808407425315	0.876543256573261	0.144560575584976	ATP citrate lyase a-subunit (AHRD V1 **** Q93YH4_LUPAL)%3B contains Interpro domain(s)  IPR016141  Citrate synthase-like%2C core 
GO:0005515	protein binding	Solyc05g047550.2	-1.41373438235377	947.00522055335	309.575986652383	Receptor-like protein kinase (AHRD V1 ***- Q9FZP2_ARATH)%3B contains Interpro domain(s)  IPR002290  Serine/threonine protein kinase 
GO:0005515	protein binding	Solyc12g014350.1	-2.46414759228203	1.10923914483307	0.156769353501353	Receptor like kinase%2C RLK
GO:0005515	protein binding	Solyc03g044190.2	2.74297297171858	0.749018409927736	3.08588779662416	FAD-dependent oxidoreductase (AHRD V1 **-- A8ISJ7_CHLRE)%3B contains Interpro domain(s)  IPR006076  FAD dependent oxidoreductase 
GO:0005515	protein binding	Solyc09g010460.2	-1.2672733723435	22.9075105112408	8.11903464345539	Eukaryotic translation initiation factor 3 subunit A (AHRD V1 ***- Q24JU4_HUMAN)%3B contains Interpro domain(s)  IPR000717  Proteasome component region PCI 
GO:0005515	protein binding	Solyc01g079330.2	-1.24517805187258	13.4967161373809	4.77079197822566	ATP dependent RNA helicase (AHRD V1 *-*- B3LNW9_YEAS1)%3B contains Interpro domain(s)  IPR011545  DNA/RNA helicase%2C DEAD/DEAH box type%2C N-terminal 
GO:0005515	protein binding	Solyc03g114410.2	-1.38967871406355	37.3430810490032	12.7053748297067	G-patch domain-containing protein (AHRD V1 *-*- C5GVR1_AJEDR)%3B contains Interpro domain(s)  IPR011666  Protein of unknown function DUF1604 
GO:0005515	protein binding	Solyc03g112850.2	1.36843875138309	2.33108058330027	4.55555285839598	60S ribosomal protein L44 (AHRD V1 ***- B9RH89_RICCO)%3B contains Interpro domain(s)  IPR000552  Ribosomal protein L44e 
GO:0005515	protein binding	Solyc10g076450.1	-1.31721889876486	326.916962516704	118.135918336653	Ethylene-overproduction protein 1 (AHRD V1 **-- D7LTY2_ARALY)%3B contains Interpro domain(s)  IPR011990  Tetratricopeptide-like helical 
GO:0005515	protein binding	Solyc01g007150.2	-1.00522501826245	10.3282440196272	4.35201552319273	Coatomer subunit beta-1 (AHRD V1 ***- D7MB61_ARALY)%3B contains Interpro domain(s)  IPR016460  Coatomer%2C beta subunit 
GO:0005515	protein binding	Solyc08g079510.2	-1.54733440978045	2.40819941489791	0.630265103856346	Unknown Protein (AHRD V1)
GO:0005515	protein binding	Solyc07g018140.2	-2.00909980280214	1.69182496621283	0.300695157120068	Serine/threonine protein kinase-like (AHRD V1 **** Q9FGC3_ARATH)%3B contains Interpro domain(s)  IPR002290  Serine/threonine protein kinase 
GO:0005515	protein binding	Solyc10g005130.2	-1.80748199496702	1.95623996034047	0.410302396020933	Ribonuclease 3-like protein 3 (AHRD V1 *-*- RTL3_ORYSJ)%3B contains Interpro domain(s)  IPR005034  Dicer double-stranded RNA-binding fold 
GO:0005515	protein binding	Solyc06g067880.2	1.57324055367911	20.4038608814001	38.9724964207321	V-type proton ATPase proteolipid subunit (AHRD V1 **** D3PI45_9MAXI)%3B contains Interpro domain(s)  IPR000245  ATPase%2C V0 complex%2C proteolipid subunit C 
GO:0005515	protein binding	Solyc09g065790.1	1.38507520112862	1.20702753376503	2.61742777673707	ATP-dependent Clp protease proteolytic subunit (AHRD V1 **** C6TL65_SOYBN)%3B contains Interpro domain(s)  IPR001907  Peptidase S14%2C ClpP 
GO:0005515	protein binding	Solyc06g076870.2	0.901963387256944	14.36450075581	22.0013990748762	60S acidic ribosomal protein P0 (AHRD V1 ***- D7LEE5_ARALY)%3B contains Interpro domain(s)  IPR001790  Ribosomal protein L10 
GO:0005515	protein binding	Solyc07g056520.2	-1.35274229085576	23.8605953023699	8.12532474669909	Ubiquitin carboxyl-terminal hydrolase (AHRD V1 **** B9SU52_RICCO)%3B contains Interpro domain(s)  IPR001394  Peptidase C19%2C ubiquitin carboxyl-terminal hydrolase 2 
GO:0005515	protein binding	Solyc02g082540.2	-1.21085553770709	23.1873781064926	8.15699408542669	Actin cytoskeleton-regulatory complex protein pan1 (AHRD V1 *--- PAN1_SCLS1)%3B contains Interpro domain(s)  IPR011992  EF-Hand type  IPR000261  EPS15 homology (EH) 
GO:0005515	protein binding	Solyc05g055860.2	-1.004981177708	432.890618315876	185.759408591175	Serine/threonine-protein kinase (AHRD V1 **** C6ZRV0_SOYBN)%3B contains Interpro domain(s)  IPR002290  Serine/threonine protein kinase 
GO:0005515	protein binding	Solyc12g044910.1	1.24462844121787	2.30310144467951	4.32162533042264	Coatomer subunit zeta-1 (AHRD V1 ***- B6UH71_MAIZE)%3B contains Interpro domain(s)  IPR011012  Longin-like 
GO:0005515	protein binding	Solyc09g009640.2	1.29125794672004	13.7067272359885	26.4172844380053	U6 snRNA-associated Sm-like protein LSm7 (AHRD V1 **-- C1BNB6_9MAXI)%3B contains Interpro domain(s)  IPR017132  U6 snRNA-associated Sm-like protein LSm7 
GO:0005515	protein binding	Solyc06g060120.2	-1.02177700913084	33.0583485084271	14.0505538967938	SWI/SNF complex subunit SMARCC1 (AHRD V1 *--- SMRC1_MOUSE)%3B contains Interpro domain(s)  IPR007526  SWIRM 
GO:0005515	protein binding	Solyc06g069370.2	-0.955772673141975	9.15495995317039	3.93474017177966	Transcription factor protein (AHRD V1 *-** Q4H2R4_CIOIN)%3B contains Interpro domain(s)  IPR011598  Helix-loop-helix DNA-binding 
GO:0007018	microtubule-based movement	Solyc03g114380.2	-1.38127687303713	4.33984979743581	1.38209421283189	Kinesin family protein (AHRD V1 *-*- C5FSE4_NANOT)%3B contains Interpro domain(s)  IPR001752  Kinesin%2C motor region 
GO:0007018	microtubule-based movement	Solyc06g060140.2	-1.80320456556265	19.8028965875721	4.90056172937535	Kinesin like protein (AHRD V1 *-*- Q9SVI8_ARATH)%3B contains Interpro domain(s)  IPR001752  Kinesin%2C motor region 
GO:0007018	microtubule-based movement	Solyc01g100120.2	-0.971948366876204	745.679446636224	327.097785060135	Kinesin (AHRD V1 ***- Q5MNW6_GOSHI)%3B contains Interpro domain(s)  IPR001752  Kinesin%2C motor region 
GO:0007018	microtubule-based movement	Solyc01g066820.2	-1.1656986820836	19.5913208118355	7.50064463865819	Kinesin like protein (AHRD V1 ***- Q940B8_ARATH)%3B contains Interpro domain(s)  IPR001752  Kinesin%2C motor region 
GO:0007018	microtubule-based movement	Solyc06g069130.2	-1.35528292861813	241.862040804652	83.1935261631141	Kinesin-like protein 73641-79546 (AHRD V1 ***- Q9CAC9_ARATH)%3B contains Interpro domain(s)  IPR001752  Kinesin%2C motor region 
GO:0007018	microtubule-based movement	Solyc04g081060.2	-1.92524230277481	1442.4054640315	344.141705724524	Kinesin like protein (AHRD V1 *-*- Q0WLK7_ARATH)%3B contains Interpro domain(s)  IPR001752  Kinesin%2C motor region 
GO:0007018	microtubule-based movement	Solyc01g098980.2	-1.57296282560192	5.12711008591624	1.41267475641322	Kinesin (AHRD V1 *-*- A6YTD6_CUCME)%3B contains Interpro domain(s)  IPR015748  Mitogen activated protein kinase kinase kinase 3 
GO:0007018	microtubule-based movement	Solyc07g042560.2	-1.67374528405923	1.58355380876301	0.415775194818204	Kinesin-like protein (AHRD V1 ***- Q8LNZ2_ARATH)%3B contains Interpro domain(s)  IPR001752  Kinesin%2C motor region 
GO:0007018	microtubule-based movement	Solyc12g099540.1	-1.31933098422897	112.279053055662	38.5978859117515	Kinesin like protein (AHRD V1 ***- Q940B8_ARATH)%3B contains Interpro domain(s)  IPR001752  Kinesin%2C motor region 
GO:0007018	microtubule-based movement	Solyc05g054260.2	-1.13791272152421	25.5745269000546	9.64402573822247	Kinesin like protein (AHRD V1 ***- Q940B8_ARATH)%3B contains Interpro domain(s)  IPR001752  Kinesin%2C motor region 
GO:0007018	microtubule-based movement	Solyc11g044880.1	-2.2335196552068	24.6580592673401	4.58350885029181	Kinesin like protein (AHRD V1 ***- Q9SVI8_ARATH)%3B contains Interpro domain(s)  IPR001752  Kinesin%2C motor region 
GO:0007018	microtubule-based movement	Solyc02g062330.1	-1.40195932654006	436.268910433685	146.885139692263	Kinesin like protein (AHRD V1 *-*- Q0WLK7_ARATH)%3B contains Interpro domain(s)  IPR001752  Kinesin%2C motor region 
GO:0007018	microtubule-based movement	Solyc12g036810.1	-1.84422713458571	5.14509748877863	1.13694995856672	Kinesin-like protein 73641-79546 (AHRD V1 *-*- Q9CAC9_ARATH)%3B contains Interpro domain(s)  IPR001752  Kinesin%2C motor region 
GO:0007018	microtubule-based movement	Solyc11g010560.1	-1.50187792799803	22.6748862828581	6.86300505345176	Kinesin-like protein (AHRD V1 *-*- Q9SS42_ARATH)%3B contains Interpro domain(s)  IPR001752  Kinesin%2C motor region 
GO:0007018	microtubule-based movement	Solyc04g077540.2	-1.86949069729353	1.69990358066855	0.399005821866107	Kinesin-like protein (AHRD V1 ***- Q9S7P3_ARATH)%3B contains Interpro domain(s)  IPR001752  Kinesin%2C motor region 
GO:0033179	proton-transporting V-type ATPase, V0 domain	Solyc12g098720.1	2.9098319056269	2.38183323518242	10.3272744656902	ATP synthase subunit H family protein (AHRD V1 ***- D7MKG2_ARALY)%3B contains Interpro domain(s)  IPR008389  ATPase%2C V0 complex%2C subunit E 
GO:0033179	proton-transporting V-type ATPase, V0 domain	Solyc10g054570.1	2.22081947273544	3.10160855788775	8.71852445966084	V-type proton ATPase 16 kDa proteolipid subunit (AHRD V1 ***- VATL_SOLLC)%3B contains Interpro domain(s)  IPR011555  ATPase%2C V0 complex%2C proteolipid subunit C%2C eukaryotic 
GO:0033179	proton-transporting V-type ATPase, V0 domain	Solyc09g098440.2	1.76977127397834	2.65725511582542	5.86483686967779	Vacuolar ATPase subunit e-like (AHRD V1 ***- Q8GUB2_MESCR)%3B contains Interpro domain(s)  IPR008389  ATPase%2C V0 complex%2C subunit E 
