AT4G35530	1.48778600511793
AT1G71740	2.53862112053534
AT1G03830	-4.87434723063624
AT1G48140	1.37999064161274
AT1G14830	-1.09203041315972
AT1G14860	1.80949982857602
AT3G07160	-1.27362332695109
AT2G38910	-1.26433946625806
AT2G35850	2.44285397016575
AT5G16280	-1.92435270508163
AT5G06370	1.02481283398136
AT4G31480	-1.00522501826245
AT1G63780	1.46427093519902
AT3G52560	0.979292784983884
AT2G45710	1.86950895517253
AT1G79000	-1.89866425568457
AT3G11920	-1.2684009562141
AT1G50320	1.6145730346612
AT5G12480	-1.09125070672688
AT3G18740	1.73707157072264
AT5G20950	-1.13716748310044
AT3G44200	-1.27268047630086
AT5G13190	1.15422928126346
AT3G25600	2.0546119869037
AT1G13950	1.17162760145046
AT5G19900	-1.07545874773153
AT4G32670	3.14202766121809
AT5G19820	-1.34374124221137
AT5G49540	1.25162508268987
AT5G49480	1.56656648044776
AT3G16785	-1.26050020632843
AT5G27870	-0.969958786740056
AT5G49150	-1.76941686298131
AT5G49050	2.01852143498597
AT3G16630	-1.1656986820836
AT5G27700	1.57682666498264
AT4G15730	-2.1991664133266
AT3G05020	2.80902163130767
AT3G21480	-1.85977779878374
AT5G63940	-1.27330035384821
AT2G38770	-2.15425528811903
AT3G58730	1.03518993233155
AT5G23800	-1.21274160724373
AT2G47330	-1.24517805187258
AT3G06660	-1.02128114658879
AT2G47410	-1.20086609886452
AT3G62590	-1.10663452260876
AT5G19310	-1.18043740391162
AT5G19280	-1.03019532687029
AT5G19260	1.99459363301934
AT5G18910	-1.05259522779177
AT5G17610	1.25752658123267
AT5G17650	1.65000657607362
AT3G03600	-2.02548194525774
AT5G48030	-1.7535971272159
AT3G52140	-1.66831902173322
AT1G51200	1.49694810451069
AT5G21080	-1.95236993848054
AT5G21080	-1.19040679795729
AT3G23890	-1.83341598011763
AT5G15920	-2.28037477936071
AT5G25780	-1.42486594476179
AT2G44581	2.89139446028187
AT5G26667	1.71113428590837
AT5G46990	1.80992580696006
AT3G60240	-1.2175600317672
AT2G44900	-1.14532421344649
AT4G00060	-1.68716781988953
AT3G61190	1.89031305064858
AT3G60920	-2.43984592342275
AT4G00680	2.35816442051021
AT2G46020	-1.77624966086592
AT4G01290	-1.26379448376236
AT5G64130	1.15844021499665
AT4G01270	-1.67148613719688
AT3G61570	-1.26505396452952
AT4G01140	0.900226272322434
AT1G01450	-1.21556069243613
AT3G61690	-1.35738000339178
AT3G61740	-1.36203834302917
AT1G01320	-1.97354379944557
AT2G46540	1.60585646104369
AT3G07960	-1.26544483672049
AT5G13530	-1.57089270419861
AT5G54750	1.2170162761353
AT1G54460	-0.967879478307373
AT5G03455	3.09027832864055
AT5G28690	1.30197405046254
AT3G04740	-1.329127777685
AT3G60050	-1.35505042678358
AT3G04920	1.21726083368653
AT3G04940	1.70016776599506
AT5G27980	1.61076012070649
AT3G02270	-1.42074036298486
AT3G05230	1.2309844749777
AT1G54920	-1.29231562183649
AT1G09000	-1.57296282560192
AT1G67500	-1.74287373470604
AT1G09070	1.53544698066828
AT5G41520	1.59436109713576
AT3G05540	2.48579555430091
AT3G16640	2.20606456453147
AT3G05550	0.962328251786363
AT1G02830	2.78015027241414
AT1G09160	-1.56710132982364
AT5G27000	-0.971948366876204
AT5G02280	1.24754872713312
AT3G62200	-1.35372506457088
AT2G02560	-1.83538795435285
AT1G10290	-1.30548000499732
AT1G10270	-1.35926216451618
AT4G10040	1.17141719415074
AT1G09645	1.64784346794748
AT1G58060	-1.34947479625934
AT2G40360	-1.93189534174497
AT4G11840	-1.38900157075679
AT1G10930	-1.50211140806733
AT5G64300	-1.09164151502472
AT4G17000	-2.55600548823893
AT5G57625	0.928857780332286
AT1G50030	-4.20666845577194
AT3G19510	-1.63900329902555
AT4G05440	1.51354889422232
AT4G34100	-1.1310993488897
AT3G19190	-1.62312695872585
AT2G05850	-1.20726130386801
AT2G15900	-1.17894558733086
AT1G49270	-1.28402448489134
AT2G21600	0.998861542295671
AT2G21520	-1.02029821640505
AT4G39110	-1.36517047149423
AT2G21430	1.1750673254578
AT2G21410	-1.60804186825302
AT4G36240	1.54137648022505
AT2G16460	1.11075158694961
AT4G34700	1.25282024149393
AT2G16640	-2.28037245484295
AT4G38600	-1.11505767873966
AT2G03160	1.30032262389203
AT2G16950	-1.417954682678
AT4G35380	-1.68612246361911
AT5G23110	-3.37826856084762
AT5G23110	-1.79718020774384
AT3G19740	-1.58032141608043
AT4G29950	-0.958515137869608
AT5G58050	-1.3532030978965
AT5G08290	1.15065268194335
AT3G19960	-1.63787937638177
AT2G17140	-1.66539743390903
AT5G57320	-0.955729969947007
AT1G30270	-1.26067833055203
AT4G18040	1.1667643456709
AT4G18640	-1.01096885828381
AT1G62290	-0.969246423274131
AT1G65710	-2.42883527550411
AT4G25940	-1.3656819197817
AT5G23390	-1.29889606456675
AT1G50380	-1.41024343579511
AT3G51390	-1.73014120990257
AT5G66070	0.850550333429992
AT5G66310	-1.40195932654006
AT3G51120	-2.37664252791361
AT5G66750	-1.56730572975764
AT5G17480	3.20860168901807
AT5G37770	2.38830701910781
AT5G66850	-1.37101746971935
AT3G02480	1.84676023657704
AT5G39500	-1.354306312673
AT3G29240	1.55818053645335
AT5G39670	2.14556732656005
AT1G69900	1.09728397168549
AT1G53530	2.97877488269817
AT4G22350	-1.32464838827363
AT5G44790	-1.2481082330385
AT2G35060	-1.35375928812809
AT2G34585	2.39286285214113
AT4G18240	-1.76181789911493
AT1G29850	0.910695518446023
AT4G18050	-1.31504562957146
AT4G27550	-1.13021027469379
AT2G34180	-1.00518756741147
AT4G18640	-1.38452808377728
AT1G74260	-1.34414540364851
AT5G46030	2.12650511276968
AT1G28510	1.25420294416308
AT2G33860	-1.56040558578207
AT1G28420	-1.32152849270056
AT4G25950	2.12935930845989
AT4G21720	1.39721935455017
AT2G35630	-1.45596584987841
AT1G61080	-1.14897723060517
AT4G05020	-2.15272731085023
AT4G21760	-1.43930689734865
AT1G61850	-1.02429073664426
AT1G62310	-1.33230090168132
AT5G40060	-2.80708018224659
AT5G20650	2.40502343492559
AT5G44690	-1.32155580071669
AT1G21630	-1.21085553770709
AT4G35520	-1.77290286343123
AT5G66030	-1.4385279181199
AT4G35800	-1.24944134490511
AT2G17705	2.27159479165603
AT4G36080	-1.90627016523697
AT5G17280	1.12276586710159
AT5G44230	-1.29887020099015
AT5G66780	2.17619747301419
AT5G38210	-1.93064215834131
AT5G16210	-1.85805673250845
AT2G36980	-1.412661447262
AT3G27960	-1.795242784702
AT3G48140	1.61683791927508
AT3G01320	-1.65260876169275
AT1G14400	1.08626144516129
AT5G39500	-1.21491795614118
AT5G39420	-1.06598732711727
AT3G02125	-1.03002810820139
AT5G08060	1.08806801827313
AT5G38900	1.18190652654445
AT5G38840	-1.41061547792877
AT3G02480	1.55837894745378
AT1G67220	-1.26661275813942
AT1G67230	-1.78655254005013
AT5G66850	-1.01482876641642
AT3G50590	-2.03271199387452
AT5G66810	-0.979019574952198
AT3G50370	-1.71662156903932
AT5G17480	2.30898443724974
AT4G37860	-1.43687987705623
AT4G37820	-1.9052742446023
AT5G67590	0.922600652822374
AT3G49860	1.81638789718604
AT2G22950	-1.71362232488034
AT4G33910	2.28338351337137
AT2G23380	-2.15918336583042
AT5G63270	2.89506340014054
AT3G27340	1.01528511231959
AT3G27325	-1.40431233094062
AT3G01810	2.15287984493817
AT3G27060	1.15233714040398
AT3G27020	-1.10181209289466
AT5G13950	-2.2783132355573
AT3G19340	-1.305324685412
AT1G05380	-2.2376771703296
AT1G04470	-1.32000571969488
AT1G29140	1.47497299884174
AT1G31550	1.98491386588158
AT1G28330	1.65144331067661
AT3G15450	1.33752148559322
AT1G61080	-1.41831288976995
AT5G41700	1.83023970796699
AT1G79940	-1.07129830947504
AT1G73200	-1.3969321717711
AT5G52310	-1.73467919925855
AT1G76490	-0.914249740647495
AT4G35905	2.57324314006338
AT2G17800	1.1336390531487
AT3G50690	-1.18279553478607
AT4G28280	2.09456687147066
AT2G22640	1.65763075867042
AT3G49860	1.67152053726335
AT5G67290	2.74297297171858
AT2G23380	-0.972695163701556
AT4G36820	3.44991671443612
AT4G36820	2.04273884980018
AT5G15680	-1.00109008223907
AT2G42320	-1.59849347910764
AT3G14430	1.90337428911075
AT3G16320	-1.96471855148391
AT3G12810	-2.43437396515623
AT3G49600	-1.2722792856241
AT3G49470	1.44936471091933
AT2G36170	1.95593909658577
AT5G53560	1.97693041066903
AT5G24320	-1.04817447560841
AT1G62820	1.01153493779849
AT5G62310	-1.89156483582079
AT2G45180	1.98185386864327
AT1G02140	1.2714414282387
AT3G56420	1.27310432725102
AT3G03140	-1.46729557620788
AT1G50240	-1.83895952904321
AT5G46910	-1.14438065070092
AT1G65000	1.25219338675789
AT5G16680	-1.31128775337351
AT5G35980	-1.32022712639842
AT4G24970	-1.22188452643877
AT5G51140	-2.54932420474752
AT1G48440	1.41408302927176
AT1G73450	-2.05843838525722
AT5G08360	-1.50056542634352
AT5G63320	-1.04525584792336
AT2G36850	-2.30787016792004
AT5G63135	2.45520860545127
AT4G24680	-1.23085174431518
AT3G48195	-1.69287144068259
AT4G14320	1.36843875138309
AT5G61700	-1.33428305800663
AT5G39910	1.34921395938223
AT1G74830	-0.942953502312704
AT3G48060	-1.57551272321747
AT1G52720	1.6969561561425
AT1G18550	-1.38127687303713
AT5G23080	-1.38967871406355
AT3G08900	2.700640954856
AT1G74250	-1.23531196918165
AT5G07920	-1.03424323521994
AT1G13950	0.932166406887287
AT1G74330	3.96053371005836
AT1G15400	1.15569527804939
AT1G80160	1.48556068628956
AT3G15760	1.36468481463201
AT1G15340	-2.34308674357173
AT5G60460	2.05822767988267
AT5G07340	-1.4975185437819
AT5G20165	2.08956023263966
AT5G61980	-1.12993991181038
AT1G24290	-1.91204996569591
AT5G42390	-1.60760511868901
AT1G48590	2.12112038661398
AT1G73740	1.22885188839467
AT3G18100	-1.36335157886966
AT1G48790	-1.16323842281449
AT1G73930	-1.31156552219964
AT1G73960	-2.50310094044279
AT1G80340	2.56842584499256
AT1G79910	-1.26505379597368
AT1G52360	-2.02087948787774
AT3G15970	-1.21466604252459
AT1G80360	-1.71688075144218
AT1G52190	-1.40492833454763
AT1G73030	0.993409404462927
AT1G72960	-1.23409993398712
AT3G13860	-1.01179978553624
AT1G72700	-1.425970494568
AT5G13640	-0.971428959872253
AT4G34060	-1.42361655987457
AT1G72440	-2.17460157006648
AT1G72330	-2.11852238546415
AT1G72330	-1.40240029316283
AT3G21180	-1.29868546059868
AT1G16800	-1.95887135670909
AT1G26190	-1.54473718518752
AT1G13900	-0.986397414109452
AT1G26740	1.00667350823052
AT1G68490	1.52353032399694
AT2G01270	-0.923420430135331
AT1G14910	-1.64193853955328
AT1G70680	1.74963613460353
AT1G24620	1.75875314026669
AT2G02050	2.49020059740481
AT2G31260	-1.22864073920878
AT1G10870	-1.49601061441866
AT3G06320	1.82272645581302
AT2G39580	-1.15602505910677
AT2G22560	-1.53099899507177
AT5G37720	-0.954787418461611
AT5G47750	-1.41482281740562
AT5G47780	-1.14762080909804
AT1G65290	1.66607843407915
AT2G41830	-1.20675379086144
AT2G41790	-1.17736995827205
AT3G57410	-1.26577483585149
AT3G57330	-1.25207741439216
AT3G57280	1.20194704898784
AT2G41410	1.56062814545222
AT3G54800	-1.11327516503173
AT1G23190	-0.980981181755392
AT3G16270	-1.22454448792048
AT1G54490	-1.32718325050447
AT5G63840	-1.3406880295388
AT3G52250	-1.47405866361122
AT3G11950	-1.8091267437773
AT2G28880	-1.66027031723462
AT1G16760	-1.10005667317151
AT1G50970	-1.24689749684986
AT2G39260	-1.73447406037025
AT2G28540	-1.43939912338333
AT4G39800	-1.06332993079591
AT3G02810	-1.22485354997384
AT4G39420	-3.52935628977511
AT4G39730	0.883532225498168
AT4G39850	-1.78677040068733
AT3G02790	2.41773284584875
AT1G77300	-1.60569598444369
AT1G22730	-1.9167860137633
AT4G17616	-1.39041848113947
AT4G08550	-1.39967667161064
AT4G39680	-1.14269281602413
AT4G30100	-1.79907209014212
AT1G78100	-0.902647638655005
AT4G40030	1.46850047742128
AT5G27700	2.68108052304135
AT4G24610	-2.2584241495486
AT1G09740	1.34900846518147
AT2G31170	-0.996098749419554
AT1G58230	-1.69090905338611
AT1G27530	1.53600811235344
AT1G10030	2.18370794425813
AT1G10090	-1.3141821630785
AT1G59540	-1.86949069729353
AT1G27720	-1.71687741113309
AT4G07400	-1.01715641354276
AT5G67090	-2.15548582646998
AT5G42890	1.12564228102818
AT1G73300	2.13795915466652
AT1G45160	-1.36190308841434
AT5G42950	-1.13670133736172
AT5G42490	-1.92524230277481
AT5G42540	-1.45729942784529
AT1G47830	1.82935435766089
AT3G20210	-2.60255518634079
AT1G76185	1.78049320475382
AT2G30600	-1.81934060105903
AT1G10760	-1.08424888397226
AT1G23750	1.0417660719073
AT5G52200	2.79429484961572
AT3G01460	-1.96198305175808
AT1G59820	-1.59463892649384
AT1G69710	-2.14767881761681
AT5G37810	2.02800509403979
AT1G22960	-1.71542501562001
AT1G20970	-2.14244310813231
AT1G68720	-2.97525404314309
AT1G68910	-1.10689948641547
AT3G02180	1.31454195433997
AT1G13940	-1.51261336036344
AT5G57250	-3.56837595525066
AT3G26350	-2.08901812310605
AT1G67785	1.19884381207552
AT1G27910	-1.10189843167979
AT4G08800	-0.85702799452235
AT2G20010	-0.917943089261096
AT2G20020	-2.07754221923538
AT5G07290	-1.0107259082302
AT5G48170	1.76265991143941
AT1G03830	-3.62326582223783
AT1G01780	1.95599224314361
AT4G01270	-1.09905845221099
AT4G12090	1.40462555715186
AT1G66180	2.48542841754099
AT2G22560	-1.87923202815678
AT2G22500	1.17330384941491
AT5G65290	-1.01269835459153
AT2G39990	1.24830517816034
AT3G17210	1.95044521763055
AT4G13560	2.58000593628732
AT3G24050	0.969723714746648
AT1G15520	-2.15850762917592
AT1G15520	-1.33814427284071
AT5G43490	-1.79886121757115
AT4G17230	-1.18343585633334
AT3G16630	-1.13791272152421
AT5G49050	2.2205837003532
AT2G39340	-1.43497788677128
AT1G66240	2.23860969846738
AT3G10560	5.76219215229658
AT2G39170	1.70072622784051
AT3G02810	-1.004981177708
AT4G09980	-1.38934341355326
AT1G65290	2.318333828956
AT5G08450	-1.7119564802096
AT5G64030	-1.55104966624994
AT3G09640	1.65796136430063
AT5G40370	2.05641912752225
AT1G07540	-1.09522778766279
AT1G49190	1.2308815164018
AT1G07330	-1.61932497659759
AT1G63630	-1.25851483553325
AT2G18600	2.51985498899011
AT5G41700	2.88020862532407
AT3G10860	1.38010968670351
AT3G07350	1.49431286762129
AT3G07480	1.21211656431632
AT4G13100	0.907506340107325
AT2G20330	-1.22603518416459
AT1G04070	1.34807879580434
AT4G28556	0.946677116609305
AT1G17580	-1.98191328725228
AT1G02990	-1.68808238642075
AT2G02930	2.49039879558218
AT4G02380	1.83501173909545
AT4G09020	-1.70318739446253
AT3G62360	-1.19129499310177
AT3G04690	-1.07321536377043
AT3G04690	-0.994690071678285
AT4G02030	-1.50642307426741
AT5G60410	-1.64732992200856
AT2G25330	-1.6945097191369
AT4G25230	-1.06233137988592
AT3G53740	2.28671338991308
AT4G01230	1.31000382430035
AT5G20420	-1.62316757082909
AT1G08135	-1.18471388970382
AT5G05570	-1.05973795111361
AT1G67960	-1.28485374273568
AT3G49160	-1.37216355160168
AT2G01540	1.01262867582307
AT1G79280	-2.56420876737824
AT1G04330	2.38990728948716
AT1G04310	-1.38403004602158
AT5G43560	-1.48623785109745
AT1G04270	1.63203628325009
AT5G59613	2.29943783100962
AT1G21700	-1.02177700913084
AT1G21730	-1.80320456556265
AT1G44120	-1.53441398504794
AT2G35160	-1.28287014342766
AT3G21320	-1.48934186892216
AT1G17540	-1.2824086663865
AT1G54170	-1.23733635996866
AT1G53730	-1.2299519061487
AT4G30010	1.28901766194166
AT1G78980	-1.11553349222477
AT1G31230	-1.57867695132104
AT1G71530	-1.04360782131491
AT4G09150	-1.38397720173242
AT1G35660	-3.09917076624473
AT1G71950	1.51843370124038
AT4G09570	-1.13836145734332
AT5G11040	-0.998038538696518
AT4G32070	-1.23377768132382
AT1G32130	-1.18019408298707
AT1G74340	1.5113089368694
AT4G29340	2.27222705205762
AT1G79830	-1.49423895929954
AT1G52360	-1.56571729705086
AT1G64980	1.8206964143054
AT4G32530	1.57324055367911
AT5G50990	-5.10153281448386
AT3G17850	-2.12492468106421
AT1G48590	1.05942376517355
AT1G73630	1.94366236583208
AT1G73860	-1.35528292861813
AT5G08130	-0.955772673141975
AT4G26190	-2.36867062452513
AT5G07960	2.07822137794523
AT5G07820	-1.22137487054114
AT5G07760	-2.50085888882819
AT5G07760	-1.45373829068237
AT1G74670	2.41114365456368
AT5G61700	-1.93899220081134
AT3G47730	-1.04184660015199
AT3G48020	1.42272072996211
AT1G27510	-0.913373496452384
AT1G73450	-1.72455202910889
AT5G40520	-1.08083694272405
AT3G22230	1.17869183307305
AT3G11710	-1.37843104651758
AT5G22780	-1.78421784766868
AT5G15400	-2.29377182408479
AT2G28320	-2.04680647836807
AT5G18150	3.06528500520727
AT2G28520	-1.4551593070009
AT1G19550	1.54347604074633
AT2G28620	-1.43926405858508
AT5G47890	1.90580939303106
AT1G47278	2.46071685239465
AT3G56150	-1.11143207456008
AT1G07540	-1.15480845891811
AT5G59140	1.09744987181498
AT1G07280	-2.26920336093282
AT2G29950	1.28123363761988
AT2G30360	0.909598143603348
AT2G30460	1.48391907532703
AT3G13230	1.48106619998359
AT1G66580	1.17145453445135
AT1G14320	1.13095859133375
AT3G10860	2.37484016627325
AT4G12770	-1.10673702132666
AT3G07230	2.05215916296078
AT1G11475	2.3815837565472
AT3G24880	-2.30231644648652
AT2G32720	0.908801190691786
AT2G20320	-1.36210370497233
AT5G43990	-1.39344401569906
AT4G28530	4.0827189271968
AT3G54670	-1.7829451995797
AT1G65660	-1.19445968268503
AT3G58160	-1.90027772113554
AT5G57930	1.78481468971746
AT5G22010	-2.10169241526815
AT5G57830	-1.17892747814654
AT4G30790	-1.1657685951137
AT4G28080	-1.31665341259142
AT4G30845	3.39979647039861
AT4G28060	1.67191927645118
AT5G57610	-1.21522549086706
AT5G35110	2.39565815526937
AT2G41040	1.20528035548278
AT5G20360	-1.81099730663628
AT5G20280	-2.08639457456323
AT1G14850	-1.76669353910701
AT5G20200	-1.59591052570021
AT5G25080	0.95542740395589
AT4G29950	-1.29512741322943
AT5G16410	1.63281480229968
AT3G42850	-1.26117011598684
AT2G18890	-2.00909980280214
AT4G33390	-1.51501315419148
AT1G47380	-1.18596246290146
AT1G47560	-1.25776686366407
AT4G29440	-1.6123786252132
AT4G35740	-1.64756931343531
AT1G71210	-1.45142626881948
AT1G19110	-1.30212652939231
AT3G43210	-1.67374528405923
AT4G31040	2.36757128003068
AT5G55980	1.28416239037951
AT2G04410	2.37947573657227
AT3G07290	-2.28737032644174
AT2G32970	-1.060348859036
AT4G26710	1.65491861425049
AT5G55310	-1.25203398902912
AT4G01720	-1.5403033865097
AT4G15200	-1.10205779107354
AT1G56540	-1.21708862431166
AT4G15180	-1.58874531907037
AT4G03260	-1.15196799653874
AT1G03750	-1.42228130223424
AT4G03550	-1.39301617805686
AT1G17220	-1.3701570449067
AT3G14400	-1.35274229085576
AT3G14850	1.47509388276817
AT1G53310	-1.30052335953133
AT3G14980	-1.4188299485765
AT2G33775	1.1589856595043
AT4G27420	-0.858932390555253
AT4G27370	-1.67081691844521
AT3G20660	1.41755443242217
AT5G54650	-1.14602398163466
AT5G54730	-1.36530547379991
AT3G20720	-1.65576059906233
AT5G55060	-1.11458425868844
AT3G20150	-1.82295483426352
AT5G55820	-2.50100646662157
AT5G55850	2.10038223165756
AT3G13310	1.51927811173594
AT4G26440	-1.00276862950431
AT1G16540	-1.38285966708458
AT3G12760	1.33059244597758
AT1G16330	-1.4903573415407
AT2G35215	1.77305876434006
AT5G46830	-2.78704889745503
AT1G52325	-1.62238270541333
AT2G35510	-1.07421887612979
AT1G68000	0.943911647111556
AT1G01940	1.15148652401148
AT4G31570	-1.7052069422213
AT5G25010	1.38541417871383
AT5G63480	1.58615386688705
AT3G60245	2.27689881723979
AT4G16745	-2.09814881855078
AT4G11970	-1.11875895342654
AT1G64300	-1.44060101859077
AT5G41780	-1.31155734819203
AT3G07568	2.57818461019444
AT2G43900	-1.21871871792882
AT3G59910	-0.960773046018076
AT2G26890	-2.67870920714729
AT2G26890	-1.44591262714323
AT2G05830	-1.34220520967577
AT2G25170	-1.68949213523184
AT2G24940	2.54666016169231
AT2G25250	1.84720475017337
AT5G11110	-1.80748076158718
AT4G15090	-2.16825990754992
AT5G11170	-1.75863047009828
AT2G26280	-1.76854225748432
AT5G21940	2.2312759565216
AT4G33200	-5.0517588389857
AT2G26340	1.5016963957483
AT1G03830	-3.05040946183216
AT4G33010	-1.38587726466042
AT5G11710	-0.98444253094128
AT4G36480	-1.18908947472558
AT4G32850	-1.13568484688014
AT5G11380	-1.0936808660611
AT2G25600	-1.18866650698263
AT2G25640	-1.31193160216073
AT4G32730	-1.01758648232737
AT1G78570	-1.35378474037571
AT5G10360	0.935682459498954
AT3G54280	-1.9965137876374
AT2G35610	-1.18338744892449
AT4G19190	-1.06814999047664
AT1G31812	1.84804516081669
AT4G19110	-1.0551665380342
AT2G35510	-1.02336693922558
AT2G35480	1.73582863590881
AT1G32310	2.2217501970234
AT2G35350	-1.43117382336332
AT2G38740	0.91536360632994
AT5G47040	-1.51554414235291
AT4G30680	-1.77440372730732
AT3G60245	1.27528763172223
AT5G47200	0.88032579035718
AT4G16745	-1.02271866736599
AT4G17330	-2.62253956558277
AT1G62750	1.17831423462919
AT1G12330	-1.54733440978045
AT1G62886	1.92286165070449
AT4G11670	-1.67200592050994
AT1G63490	-1.54794337846767
AT1G63770	-1.15755120149107
AT4G23460	-1.05965208501219
AT1G64110	-0.990180752700803
AT1G64140	-1.10392659095159
AT4G23700	-1.00941527419729
AT5G41700	1.70207371029833
AT1G64300	-1.48621577191129
AT5G53440	-1.89983568070961
AT1G64460	-0.996113171989473
AT5G20090	2.42575261737737
AT5G53650	1.58361697211505
AT4G10600	-1.62478530152774
AT2G37370	-1.96166998198877
AT3G09560	-1.25277214409578
AT5G02730	1.63837514349986
AT3G53500	-1.38978156669682
AT2G37290	-1.201107835043
AT2G37010	-1.259999560452
AT5G03345	1.43533326335531
AT3G53090	-1.21163878935262
AT2G27840	1.4868027282783
AT4G25420	1.72546778242429
AT2G16710	1.85440225275929
AT2G36320	1.67776970610666
AT2G03870	1.29125794672004
AT3G46460	3.42017791746999
AT3G11540	-1.51306596002217
AT4G11420	-1.2672733723435
AT5G02430	-1.08144847906064
AT2G29080	-1.43538402734059
AT5G02020	0.931217531583252
AT3G09085	2.66471230929696
AT5G01760	-1.15952050715125
AT1G33840	1.64180869444023
AT2G38580	-1.157363682794
AT5G27970	-2.06988965650222
AT4G28630	-1.27392291900557
AT3G07490	2.31438030412023
AT3G25220	1.57339611652969
AT2G31490	1.88484463877097
AT3G24880	-2.10017298310058
AT4G13230	1.28191541428502
AT2G20190	-1.9587168929514
AT1G04120	-1.93220460871715
AT4G14830	1.49757603353237
AT3G63340	-1.36962801427589
AT1G03060	-1.9830081010557
ATCG00670	1.38507520112862
AT3G13720	1.98674209241331
AT5G16720	-2.02411950496356
AT2G20450	1.37569105184437
AT1G04010	-1.46709817735155
AT3G04400	0.960426032162269
AT2G48060	-1.628257460195
AT4G03110	-1.78312444527203
AT3G62900	-1.52472182976506
AT4G02560	-1.42531165038086
AT2G01090	1.73493895329241
AT1G02890	-1.45417207417471
AT4G02130	-1.21855518944657
AT1G02700	2.36878258641175
AT3G22380	-1.1391358926042
AT1G03070	1.87315182026797
AT3G22850	1.12904669186089
AT1G04260	1.98127708998174
AT5G43560	-1.28191644815617
AT1G04470	-1.17037658386178
AT2G33390	2.10167305670827
AT5G35620	0.85810554245136
AT5G43930	-1.40372558966619
AT4G13560	2.30392670044395
AT3G47520	1.46816033457555
AT5G20450	-1.6105803113927
AT3G23980	-1.02282514243328
AT2G33210	-2.11626027938031
AT1G04700	-1.81695402702202
AT3G45750	-2.25285165239745
AT1G04920	-1.56464734544854
AT5G26570	-2.45344919192975
AT1G02580	-2.14342533889604
AT4G26710	1.76977127397834
AT2G43160	-0.966707486178826
AT4G02280	-1.13109421893174
AT1G01040	-1.80748199496702
AT5G44690	-1.17774491364297
AT5G52890	-1.38502080372385
AT4G26470	0.982035459377203
AT3G13225	-1.09267997715019
AT5G55100	-1.60777936450984
AT1G51060	2.25588781553161
AT4G27260	-1.05098213975807
AT1G29140	1.18320263205189
AT1G03810	1.56571222392144
AT5G44270	-2.13288323208022
AT4G28280	1.55094786307911
AT1G03610	0.917138487117519
AT2G31090	3.38863954251995
AT5G46030	1.76496061794825
AT1G61080	-1.00401352325006
AT5G41700	1.24761255421713
AT1G01780	1.28011147920698
AT3G03260	1.7872044034683
AT1G54530	2.98903854126136
AT1G09580	0.949631467131822
AT4G04800	2.18162755885473
ATMG00030	4.42596672323956
AT5G20090	2.69151432024986
AT1G74990	2.27669472403301
AT4G34580	-1.13551993468363
AT1G19910	2.22081947273544
AT4G38790	1.19823548712521
AT2G44710	-1.25682611295511
AT4G38230	-1.24254671345265
AT4G38190	-1.10428012288008
AT2G38650	-1.44730087487648
AT3G08850	-1.5404091666607
AT3G08850	-1.19379657985261
AT3G51770	-1.31721889876486
AT5G13010	-2.08617639876723
AT5G17910	-2.02478110886791
AT5G37780	1.21114528651517
AT5G45190	-1.57422686965132
AT2G40950	-1.21228228476411
AT2G33260	1.26753765979856
AT5G06760	2.05918821008445
AT1G09590	1.13667507438773
AT3G12030	2.12434498620948
AT2G27580	1.10869256665909
AT2G29890	-1.15683389409056
AT2G41410	2.29357797649447
AT5G04020	3.40511630528094
AT3G19870	-1.23873336583055
AT3G57410	-1.37961092171518
AT3G11960	-2.34540401567005
AT5G19400	-1.46739981504336
AT1G63210	-1.68419618031136
AT3G43810	1.96323049445181
AT3G29020	2.08104678995658
AT5G06480	0.933529595690128
AT5G65560	-2.37264158397578
AT2G36200	-1.72303567305145
AT2G36320	2.60884493557836
AT3G09680	2.0503711383723
AT3G09560	-1.30829596431938
AT2G37520	-1.41980504812945
AT4G11420	-1.57323793655389
AT5G02390	-1.20545377399764
AT5G02730	1.55417843797105
AT5G02430	-1.27908456859786
AT3G46560	2.00249085807392
AT3G53990	1.7446764771673
AT1G77350	1.03187199344499
AT5G59613	1.88079941284352
AT4G35410	2.05361392331457
AT3G54460	-1.05529000289841
AT5G09350	-1.61074713863465
AT2G13680	-1.67783790042155
AT1G08730	-1.6592285997241
AT5G16010	2.34205926294676
AT3G58410	-1.67094999895302
AT3G10650	-1.09104203975988
AT3G10630	-1.42761728361362
AT5G04750	2.26859502962373
AT3G52200	-1.25896085782314
AT5G04460	-1.35420488301316
AT3G10360	-1.13597464174693
AT3G03300	-1.64057473405116
AT1G65430	-1.02190880338087
AT5G14290	1.26460271721383
AT4G09000	1.86653805218164
AT5G65460	-1.50187792799803
AT5G10490	-1.12506742360608
AT2G22560	-1.12476863284893
AT5G65520	2.84820213740292
AT5G37720	-0.936457787884501
AT5G39840	-1.43017710242082
AT4G10320	-1.68647698930232
AT4G12610	-1.13192634308128
AT1G21980	-2.61735749408194
AT1G77800	-1.92441585466569
AT1G77760	1.21158489681473
AT1G71865	1.95327361269677
AT4G09630	-2.20693463980968
AT1G44120	-1.36172294321017
AT3G07980	-1.48099159040556
AT4G34580	-1.14031706227718
AT1G31230	-1.36263710351354
AT1G22840	1.39475166530712
AT2G14260	3.35143259880309
AT3G18810	-1.19990354171826
AT1G05960	-1.62555335809292
AT4G39050	-2.2335196552068
AT1G05990	1.70969873860452
ATMG00030	4.30325753925868
AT2G16485	-2.27339934379339
AT5G12400	-2.54995755055112
AT5G12400	-2.21269737021926
AT5G12430	-1.90237909190979
AT5G12480	-1.37645382130755
AT5G19855	1.39974833671731
AT2G27980	-1.53259676895515
AT5G22840	-1.57635512037741
AT5G22780	-1.87910625305962
AT5G22780	-1.21393128101788
AT5G22760	-1.69126885579992
AT3G44600	-2.07739623401428
AT3G44590	1.52534108102405
AT3G52730	2.62978531228786
AT5G22440	1.54873296992883
AT2G30330	1.93504907631453
AT5G22390	2.30033266365284
AT5G60410	-0.994489267880934
AT5G60550	-1.25426714096177
AT2G28440	2.95298633175617
AT2G28320	-1.53660302779357
AT5G60740	-1.43637051262466
AT4G33040	3.0472908472146
AT5G11710	-1.09014846661913
AT1G77940	1.26161396777655
AT5G42720	2.58678842729198
AT2G41090	2.32406310829756
AT1G07910	-1.03483197547217
AT2G28520	-1.50620350505754
AT3G45630	-1.25367736287463
AT5G60010	-1.40706067046525
AT3G45830	-1.62095725446506
AT1G07710	-1.03045045754845
AT5G54640	1.91926029735623
AT2G32950	-1.18029340788484
AT1G05020	-1.20534450618851
AT5G55160	1.07073547001535
AT2G17660	1.64442052829227
AT3G22330	-1.41579107297366
AT3G22270	-1.81198499386717
AT5G05820	1.42084146825323
AT4G29350	1.96257913972294
AT4G29390	1.88229280129746
AT5G56730	-1.34443003180654
AT2G19400	-1.12679169213929
AT1G19110	-1.06521787947728
AT3G42880	-1.11033425622048
AT5G20810	0.840507401607729
AT3G42170	-3.00511381502999
AT5G57870	-1.06569380039572
AT2G07560	-0.96556902168888
AT5G35110	1.27229011386912
AT1G53023	-1.19461079081747
AT1G53110	-1.66289878587493
AT1G17790	-1.91998600338175
AT1G29140	1.794892315601
AT1G53430	-2.46414759228203
AT1G79040	4.72545504480329
AT4G25940	-1.13921927764172
AT4G25940	-1.74361390201246
AT3G43300	-1.94070007174664
AT2G43900	-1.95466669615678
AT2G41210	-1.06254489611628
AT5G19400	-1.90353203135524
AT1G15480	-1.00753772049413
AT3G01540	-1.09869021013186
AT3G27700	-1.14184167171286
AT1G73860	-1.84422713458571
AT5G61980	-1.34785161367139
AT1G52360	-1.27731110972038
AT3G16040	2.4771496045122
AT3G16290	-1.42584460764559
AT3G16330	2.82665509168272
AT2G19770	2.35415237214471
AT3G21280	-1.31290527856908
AT4G08520	1.24462844121787
AT1G72700	-1.39330863988321
AT1G72630	2.54798202198547
AT3G14270	-1.18710525632285
AT1G51650	1.50607113957423
AT5G41770	-1.45769159136666
AT3G08690	1.13567992573736
AT1G22140	2.17899096146601
AT1G70610	-1.98059692586211
AT1G70610	-1.28809387732584
AT4G24440	1.18534786195186
AT1G09920	1.85236961506781
AT4G33390	-1.26783570246269
AT1G19900	1.51210002186631
AT4G04885	-1.14468608846809
AT5G12000	-1.11041238203792
AT5G45550	1.17168813483067
AT1G77710	1.30021166544441
AT5G10700	2.75902232795757
AT2G43900	-1.156501661296
AT1G04500	-1.15755300543714
AT4G26710	2.9098319056269
AT5G49460	-2.11808407425315
AT5G49380	-1.47417910075843
AT4G16150	-1.66276666257019
AT3G16630	-1.31933098422897
AT5G12180	-1.02065130960528
AT2G13370	-1.69836832585533
